…
We now having combine data attached to regular season statistics for all
eligible receivers in the 2025 regular season. Re: combine - not all
players did all exercises. We must condition on non-missing values
moving forward.

``` r
#Example: 40-yard dash
df_forty <- final_df %>% filter(!is.na(forty))
fast_players <- df_forty %>% dplyr::select(display_name, forty, position, ypr, receptions, yards) %>%
  arrange(forty)
fast_players
```

    ## # A tibble: 282 × 6
    ##    display_name        forty position    ypr receptions yards
    ##    <chr>               <dbl> <chr>     <dbl>      <int> <dbl>
    ##  1 Xavier Worthy        4.21 WR        12.7          42   532
    ##  2 Tyquan Thornton      4.28 WR        23.1          19   438
    ##  3 Matthew Golden       4.29 WR        12.4          29   361
    ##  4 Dont'e Thornton Jr.  4.3  WR        13.5          10   135
    ##  5 Curtis Samuel        4.31 WR        11.6           7    81
    ##  6 Calvin Austin III    4.32 WR        12            31   372
    ##  7 De'Von Achane        4.32 RB         7.18         67   481
    ##  8 Bhayshul Tuten       4.32 RB         7.9          10    79
    ##  9 Brandin Cooks        4.33 WR        11.6          24   279
    ## 10 Mecole Hardman       4.33 WR       NaN             0     0
    ## # ℹ 272 more rows
…
